# Parameter file for a full doris, stack stitching, depsi, and depsi_post run until the tarball download stage.
# NOTE: only works for sentinel 1!

############################################
############# GENERAL PARAMETERS ###########
############################################

Caroline_version   = 1.0

sensor             = 'S1'  # S1 / ERS / ENV / TSX / TDX / PAZ / RSAT2 / Cosmo / ALOS2
polarisation       = ['VVVH']  # For Sentinel-1 only ['VVVH'] (others not implemented). For others, ['HH', 'HV', 'VV', 'VH'] possible (default ['HH'])

do_coregistration  = 1  # DORIS v5 if sensor is Sentinel-1, DeInSAR otherwise

do_stack_stitching = 0  # Only possible if sensor is Sentinel-1, will turn off automatically otherwise. Requires coregistration (here or dependency)
do_reslc           = 1  # Only possible if sensor is Sentinel-1, will turn off automatically otherwise. Requires coregistration (here or dependency)

do_depsi           = 0  # Requires stack_stitching (Sentinel-1), coregistration (otherwise) (here or dependency). Does not use reslc

do_depsi_post      = 0  # Requires depsi (here or dependency)
depsi_post_mode    = 'csv' # either 'tarball' or 'csv'
skygeo_viewer      = 'nl_groningen'

# Specify the AoI name and directory of each step, as well as the shapefile
coregistration_AoI_name   = 'nl_groningen'
coregistration_directory  = '/project/caroline/Share/stacks'

stitch_AoI_name  = 'dummy'
stitch_directory = '/project/caroline/Share/users/caroline-admin/dummy/stitch'

reslc_AoI_name   = 'nl_groningen'
reslc_directory  = '/project/caroline/Share/zarr_stacks'

depsi_AoI_name   = 'dummy'
depsi_directory  = '/project/caroline/Share/users/caroline-admin/dummy/depsi'

shape_AoI_name   = 'nl_groningen'
shape_directory  = '/project/caroline/Share/stacks/aoi_polygons/nl_groningen'

shape_file = '/project/caroline/Share/projects/deepnl/aoi/groningen/groningen_aoi-polygon.shp'
# above should be empty ( '' ) if you want to generate a square with parameters below, otherwise path to shape file (.shp, same directory should contain corresponding .dbf, .prj, .shx)
center_AoI = [52.371436, 4.897088]  # Latitude, longitude
AoI_width  = 1 # km, east-west AoI size
AoI_length = 1 # km, north-south AoI size

track = [37]  # Can be multiple tracks!
asc_dsc = ['dsc']
start_date = '2000-01-01' # will search for first image after this date that exists
end_date   = '9999-12-31' # will search for last image before this date that exists
master_date= '2020-03-25' # will search for first image after this date that exists

# send a notification to these email addresses upon completion of the Caroline script
# examples:
# send_completion_email = ''  # empty for no email
# send_completion_email = 's.a.n.vandiepen@tudelft.nl'  # emails Simon
# send_completion_email = 's.a.n.vandiepen@tudelft.nl,r.f.hanssen@tudelft.nl'  # emails Simon and Ramon
send_completion_email = 's.a.n.vandiepen@tudelft.nl,y.a.lumbangaol@tudelft.nl,r.f.hanssen@tudelft.nl,f.j.vanleijen@tudelft.nl'

#############################################
################# DEM PARAMETERS ############
#############################################

dem_file            = '/project/caroline/Share/dem/netherlands_srtm/netherlands_SRTM.raw'
dem_format          = 'r4'
dem_size            = [14400, 21600]
dem_delta           = [0.00027778, 0.00027778]
dem_upperleft       = [54, 3]
dem_nodata          = -32768

#############################################
##### DORIS v5 PARAMETERS (Sentinel-1) ######
#############################################
# Usually does not require changing anything
# Uses doris v5

doris_code_directory      = '/project/caroline/Share/stacks/doris/doris_v5.0.4_spider_slave_rsmp' # NOTE: generated doris_input.xml corresponds to this version!

do_coarse_orbits          = 1
do_deramp                 = 1
do_reramp                 = 1
do_fake_fine_coreg_bursts = 1
do_fake_master_resample   = 1
do_dac_bursts             = 1
do_fake_coreg_bursts      = 1
do_resample               = 1
do_reramp2                = 1
do_interferogram          = 1
do_compref_phase          = 1
do_compref_dem            = 1
do_coherence              = 1
do_esd                    = 0
do_network_esd            = 0
do_ESD_correct            = 0
do_combine_master         = 1
do_combine_slave          = 1
do_ref_phase              = 1
do_ref_dem                = 1
do_phasefilt              = 0
do_calc_coordinates       = 1
do_multilooking           = 0
do_unwrap                 = 0

############################################
######## DeInSAR PARAMETERS (non-S1) #######
############################################

# The data directories should be in the same order as the tracks and asc_dsc above!
di_data_directories       = ['/project/caroline/Data/radar_data/eurasia/netherlands/tsx/nl_amsterdam_tsx_asc_t116_T171816_171824_007_hh/data_backup']

deinsar_code_directory   = '/project/caroline/Software/caroline-prototype/plugins/deinsar_v0.3.3'
doris_v4_code_directory  = '/project/caroline/Software/doris/doris_v4.13.1_cosmo2_alos2fix_tsxfix'

di_do_orbit               = 1 # only for ENV, ERS, RSAT2, will turn off for other sensors automatically
di_do_crop                = 1
di_do_tsx_deramp          = 1 # only for TSX, will turn off for other sensors automatically
di_do_simamp              = 0
di_do_mtiming             = 0
di_do_ovs                 = 0
di_do_choose_master       = 1
di_do_coarseorb           = 1
di_do_coarsecorr          = 1
di_do_finecoreg           = 1
di_finecoreg_mode         = 'simple' # simple or normal
di_do_reltiming           = 0
di_do_dembased            = 1
di_do_coregpm             = 1
di_do_resample            = 1
di_do_tsx_reramp          = 1 # only for TSX, will turn off for other sensors automatically
di_do_comprefpha          = 1
di_do_comprefdem          = 1
di_do_interferogram       = 1
di_do_subtrrefpha         = 1
di_do_subtrrefdem         = 1
di_do_coherence           = 1

############################################
############## RESLC PARAMETERS ############
############################################

reslc_code_dir    = '/project/caroline/Software/caroline-prototype/plugins/pydepsi'

############################################
############## DEPSI PARAMETERS ############
############################################
# Usually does not require to change anything

depsi_code_dir    = '/project/caroline/Software/caroline-prototype/plugins/depsi_v2.2.1.1'
rdnaptrans_dir    = '/project/caroline/Software/caroline-prototype/plugins/rdnaptrans'
geocoding_dir     = '/project/caroline/Software/caroline-prototype/plugins/geocoding_v0.9'

max_mem_buffer    = 50e7
visible_plots     = 'n'
detail_plots      = 'n'
processing_groups = []  # [7,8] to run groups 7 and 8
run_mode          = 'validation'

exclude_date = ''

az_spacing          = 13.9
r_spacing           = 4.0
slc_selection_input = []
ifg_selection_input = []
ref_cn              = []
Ncv                 = 25
ps_method           = 'perio'
psc_model           = [1]
ps_model            = [1]
final_model         = [2]
breakpoint          = []
breakpoint2         = []
ens_coh_threshold   = 0.5
varfac_threshold    = 3
detrend_method      = 'yes'
output_format       = 1
stc_min_max         = [30, 100]
do_apriori_sidelobe_mask = 'no'
do_aposteriori_sidelobe_mask = 'no'

# Geocoding parameters
ref_height = 0

# Psc parameters
amplitude_calibration  = 'yes'
psc_selection_method   = 'threshold'
psc_selection_gridsize = 100
psc_threshold          = 0.3
max_arc_length         = 5000
network_method         = 'spider'
Ncon                   = 16
Nparts                 = 8
Npsc_selections        = 1
filename_water_mask    = []
gamma_threshold        = 0.45
psc_distribution       = 'uniform'
weighted_unwrap        = 'yes'

livetime_threshold     = 0.2
peak_tolerance         = 0.9

# Ps parameters
psp_selection_method = 'ampdisp'
psp_threshold1       = 0.5
psp_threshold2       = []
ps_eval_method       = 'psp'
Namp_disp_bins       = 100
Ndens_iterations     = 5
densification_flag   = 'yes'
ps_area_of_interest  = []
dens_method          = 'orig'
dens_check           = 'nocheck'
Nest                 = 1

# Stochastic model parameters
std_param              = [30,0.005,1,0.02,0.01,0.01,0.005]
defo_range             = 5000
weighting              = 'vce'
ts_atmo_filter         = 'gaussian'
ts_atmo_filter_length  = 12/12
ts_noise_filter        = 'gaussian'
ts_noise_filter_length = 8/12

# bowl parameters
defo_method = []
xc0         = []
yc0         = []
zc0         = []
r0          = []
r10         = []
epoch       = []

############################################
########### DEPSI POST PARAMETERS ##########
############################################
# Usually does not require to change anything

depsi_post_dir    = '/project/caroline/Software/caroline-prototype/plugins/depsi_post_v2.1.4.0'
cpxfiddle_dir     = '/project/caroline/Software/caroline-prototype/plugins/cpxfiddle'

dp_dlat                    = 0
dp_dlon                    = 0
dp_drdx                    = 0
dp_drdy                    = 0
dp_proj                    = 'rd'
dp_ref_dheight             = 0
dp_posteriori_scale_factor = 1

dp_pred_model         = [1, 3, 5]
dp_plot_mode          = 'raster' # 'raster', 'vector'
dp_do_plots           = {'defo', 'height', 'ens_coh', 'ens_coh_local', 'stc', 'amp_disp'}
dp_fontsize           = 16
dp_markersize         = 1
dp_do_print           = 1
dp_output_format      = 1
dp_az0                = []
dp_azN                = []
dp_r0                 = []
dp_rN                 = []
dp_result             = 1
dp_psc_selection      = 1
dp_do_remove_filtered = 0
dp_which_sl_mask      = 'apriori'
dp_shift_to_mean      = 1
dp_new_ref_cn         = []
dp_map_to_vert        = 1
dp_output             = {'shape', 'csv', 'csv_web_portal'} #'shape', 'shape_conv', 'csv', 'matlab', 'csv_web_portal'

dp_defo_lim          = []
dp_height_lim        = []
dp_ens_coh_lim       = 0.5
dp_ens_coh_local_lim = 0.6
dp_stc_lim           = 8

dp_defo_clim          = [-10, 10]
dp_height_clim        = [-20, 20]
dp_ens_coh_clim       = 0
dp_ens_coh_local_clim = 0
dp_stc_clim           = 20
